[
	{
		"id" : 1,
		"name_ru" : "Малиновский",
		"name_ua" : "Малиновский",
		"city_id" : 1,
		"created_at" : "2016-03-17 03:00:00",
		"updated_at" : null
	},
	{
		"id" : 2,
		"name_ru" : "Приморский",
		"name_ua" : "Приморский",
		"city_id" : 1,
		"created_at" : "2016-03-17 03:00:00",
		"updated_at" : null
	},
	{
		"id" : 3,
		"name_ru" : "Киевский",
		"name_ua" : "Киевский",
		"city_id" : 1,
		"created_at" : "2016-03-17 03:00:00",
		"updated_at" : null
	},
	{
		"id" : 4,
		"name_ru" : "Суворовский",
		"name_ua" : "Суворовский",
		"city_id" : 1,
		"created_at" : "2016-03-17 03:00:00",
		"updated_at" : null
	},
	{
		"id" : 5,
		"name_ru" : "Замостянский",
		"name_ua" : "Замостянський",
		"city_id" : 3,
		"created_at" : null,
		"updated_at" : null
	},
	{
		"id" : 6,
		"name_ru" : "Ленинский",
		"name_ua" : "Ленінський",
		"city_id" : 3,
		"created_at" : null,
		"updated_at" : null
	},
	{
		"id" : 7,
		"name_ru" : "Старогородской",
		"name_ua" : "Староміський",
		"city_id" : 3,
		"created_at" : null,
		"updated_at" : null
	},
	{
		"id" : 8,
		"name_ru" : "Шевченковский",
		"name_ua" : "Шевченківський",
		"city_id" : 2,
		"created_at" : null,
		"updated_at" : null
	},
	{
		"id" : 9,
		"name_ru" : "Киевский",
		"name_ua" : "Київський",
		"city_id" : 2,
		"created_at" : null,
		"updated_at" : null
	},
	{
		"id" : 10,
		"name_ru" : "Слободской",
		"name_ua" : "Слобідський",
		"city_id" : 2,
		"created_at" : null,
		"updated_at" : null
	},
	{
		"id" : 11,
		"name_ru" : "Основянский",
		"name_ua" : "Основ'янський",
		"city_id" : 2,
		"created_at" : null,
		"updated_at" : null
	},
	{
		"id" : 12,
		"name_ru" : "Холодногорский",
		"name_ua" : "Холодногірський",
		"city_id" : 2,
		"created_at" : null,
		"updated_at" : null
	},
	{
		"id" : 13,
		"name_ru" : "Московский",
		"name_ua" : "Московський",
		"city_id" : 2,
		"created_at" : null,
		"updated_at" : null
	},
	{
		"id" : 14,
		"name_ru" : "Новобаварский",
		"name_ua" : "Новобаварський",
		"city_id" : 2,
		"created_at" : null,
		"updated_at" : null
	},
	{
		"id" : 15,
		"name_ru" : "Индустриальный",
		"name_ua" : "Індустріальний",
		"city_id" : 2,
		"created_at" : null,
		"updated_at" : null
	},
	{
		"id" : 16,
		"name_ru" : "Немы́шлянский",
		"name_ua" : "Неми́шлянський",
		"city_id" : 2,
		"created_at" : null,
		"updated_at" : null
	}
]
